lab-3
…
pop_url <- 'https://www2.census.gov/programs-surveys/popest/datasets/2020-2023/counties/totals/co-est2023-alldata.csv'

read_csv(pop_url)

Rows: 3195 Columns: 67
── Column specification ────────────────────────────────────────────────────────
Delimiter: ","
chr  (5): SUMLEV, STATE, COUNTY, STNAME, CTYNAME
dbl (62): REGION, DIVISION, ESTIMATESBASE2020, POPESTIMATE2020, POPESTIMATE2...

ℹ Use `spec()` to retrieve the full column specification for this data.
ℹ Specify the column types or set `show_col_types = FALSE` to quiet this message.

# A tibble: 3,195 × 67
   SUMLEV REGION DIVISION STATE COUNTY STNAME  CTYNAME         ESTIMATESBASE2020
   <chr>   <dbl>    <dbl> <chr> <chr>  <chr>   <chr>                       <dbl>
 1 040         3        6 01    000    Alabama Alabama                   5024294
 2 050         3        6 01    001    Alabama Autauga County              58809
 3 050         3        6 01    003    Alabama Baldwin County             231768
 4 050         3        6 01    005    Alabama Barbour County              25229
 5 050         3        6 01    007    Alabama Bibb County                 22301
 6 050         3        6 01    009    Alabama Blount County               59130
 7 050         3        6 01    011    Alabama Bullock County              10360
 8 050         3        6 01    013    Alabama Butler County               19046
 9 050         3        6 01    015    Alabama Calhoun County             116441
10 050         3        6 01    017    Alabama Chambers County             34772
# ℹ 3,185 more rows
# ℹ 59 more variables: POPESTIMATE2020 <dbl>, POPESTIMATE2021 <dbl>,
#   POPESTIMATE2022 <dbl>, POPESTIMATE2023 <dbl>, NPOPCHG2020 <dbl>,
#   NPOPCHG2021 <dbl>, NPOPCHG2022 <dbl>, NPOPCHG2023 <dbl>, BIRTHS2020 <dbl>,
#   BIRTHS2021 <dbl>, BIRTHS2022 <dbl>, BIRTHS2023 <dbl>, DEATHS2020 <dbl>,
#   DEATHS2021 <dbl>, DEATHS2022 <dbl>, DEATHS2023 <dbl>, NATURALCHG2020 <dbl>,
#   NATURALCHG2021 <dbl>, NATURALCHG2022 <dbl>, NATURALCHG2023 <dbl>, …
…
# A tibble: 5 × 6
# Groups:   CTYNAME.y [5]
  CTYNAME.y        fips  total_new_cases population cases_per_100k watch_list
  <chr>            <chr>           <dbl>      <dbl>          <dbl> <chr>     
1 Mineral County   08079               8        929           861. Yes       
2 Boulder County   08013            2685     327084           821. Yes       
3 Larimer County   08069            2027     362747           559. Yes       
4 Denver County    08031            3968     711467           558. Yes       
5 Jefferson County 08059            2728     580703           470. Yes       

county_summary_last14 %>%
  filter(watch_list == "Yes") %>%
  count()

# A tibble: 56 × 2
# Groups:   CTYNAME.y [56]
   CTYNAME.y              n
   <chr>              <int>
 1 Adams County           1
 2 Alamosa County         1
 3 Arapahoe County        1
 4 Archuleta County       1
 5 Baca County            1
 6 Bent County            1
 7 Boulder County         1
 8 Broomfield County      1
 9 Chaffee County         1
10 Clear Creek County     1
# ℹ 46 more rows
…
